{
  "name": "pixms",
  "css_prefix_text": "icon-",
  "css_use_suffix": false,
  "hinting": true,
  "units_per_em": 1000,
  "ascent": 850,
  "glyphs": [
    {
      "uid": "4dd56d61fd0dab19277824da301424b3",
      "css": "powerful",
      "code": 59457,
      "src": "fontelico"
    },
    {
      "uid": "9bd60140934a1eb9236fd7a8ab1ff6ba",
      "css": "loading",
      "code": 59415,
      "src": "fontelico"
    },
    {
      "uid": "12f4ece88e46abd864e40b35e05b11cd",
      "css": "ok",
      "code": 59440,
      "src": "fontawesome"
    },
    {
      "uid": "5211af474d3a9848f67f945e2ccaf143",
      "css": "cancel",
      "code": 59441,
      "src": "fontawesome"
    },
    {
      "uid": "44e04715aecbca7f266a17d5a7863c68",
      "css": "plus",
      "code": 59394,
      "src": "fontawesome"
    },
    {
      "uid": "861ab06e455e2de3232ebef67d60d708",
      "css": "minus",
      "code": 59396,
      "src": "fontawesome"
    },
    {
      "uid": "ecb97add13804c190456025e43ec003b",
      "css": "keyboard",
      "code": 59426,
      "src": "fontawesome"
    },
    {
      "uid": "c8585e1e5b0467f28b70bce765d5840c",
      "css": "docs",
      "code": 59443,
      "src": "fontawesome"
    },
    {
      "uid": "5408be43f7c42bccee419c6be53fdef5",
      "css": "doc",
      "code": 59442,
      "src": "fontawesome"
    },
    {
      "uid": "21b42d3c3e6be44c3cc3d73042faa216",
      "css": "sliders",
      "code": 59449,
      "src": "fontawesome"
    },
    {
      "uid": "531bc468eecbb8867d822f1c11f1e039",
      "css": "calendar",
      "code": 59392,
      "src": "fontawesome"
    },
    {
      "uid": "d3b3f17bc3eb7cd809a07bbd4d178bee",
      "css": "move-vertical",
      "code": 59398,
      "src": "fontawesome"
    },
    {
      "uid": "3c73d058e4589b65a8d959c0fc8f153d",
      "css": "move-horizontal",
      "code": 59399,
      "src": "fontawesome"
    },
    {
      "uid": "6605ee6441bf499ffa3c63d3c7409471",
      "css": "move",
      "code": 59400,
      "src": "fontawesome"
    },
    {
      "uid": "09bdae120f85e79f2db16145a9e1f6d8",
      "css": "crop",
      "code": 59448,
      "src": "fontawesome"
    },
    {
      "uid": "823a9e02e643318116fea40a00190e4e",
      "css": "asterisk",
      "code": 59450,
      "src": "fontawesome"
    },
    {
      "uid": "47a1f80457068fbeab69fdb83d7d0817",
      "css": "youtube",
      "code": 59420,
      "src": "fontawesome"
    },
    {
      "uid": "7222571caa5c15f83dcfd447c58d68d9",
      "css": "search",
      "code": 59393,
      "src": "entypo"
    },
    {
      "uid": "bbd66ef66bb8fa9edde54d9a90b89150",
      "css": "user",
      "code": 59452,
      "src": "entypo"
    },
    {
      "uid": "ecf8edb95c3f45eb433b4cce7ba9f740",
      "css": "users",
      "code": 59421,
      "src": "entypo"
    },
    {
      "uid": "3def559c3c39b8500882e02892b7daa8",
      "css": "pictures",
      "code": 59425,
      "src": "entypo"
    },
    {
      "uid": "2cfb3f2b46b34a1790aec0aa846297b6",
      "css": "menu",
      "code": 59453,
      "src": "entypo"
    },
    {
      "uid": "14017aae737730faeda4a6fd8fb3a5f0",
      "css": "check",
      "code": 59458,
      "src": "entypo"
    },
    {
      "uid": "de9a631a7d18106aea1c89ba51b1990a",
      "css": "help",
      "code": 59409,
      "src": "entypo"
    },
    {
      "uid": "7e4164950ffa4990961958b2d6318658",
      "css": "info",
      "code": 59408,
      "src": "entypo"
    },
    {
      "uid": "513ac180ff85bd275f2b736720cbbf5e",
      "css": "home",
      "code": 59444,
      "src": "entypo"
    },
    {
      "uid": "1a7104205ea96e6f40ac716d0ca72f21",
      "css": "lock",
      "code": 59435,
      "src": "entypo"
    },
    {
      "uid": "e81fc3a0d39ace6ee735d7b24eedd56d",
      "css": "unlock",
      "code": 59436,
      "src": "entypo"
    },
    {
      "uid": "1d2a6c3d9236b88b0f185c7c4530fa52",
      "css": "flag",
      "code": 59432,
      "src": "entypo"
    },
    {
      "uid": "7ad4d2306ebda8452e5e3eff3cd8241c",
      "css": "thumbs-up",
      "code": 59430,
      "src": "entypo"
    },
    {
      "uid": "429fba993b729174468a9493613ad1ba",
      "css": "thumbs-down",
      "code": 59431,
      "src": "entypo"
    },
    {
      "uid": "b08cfe8039de2ce815686aced2caef06",
      "css": "download",
      "code": 59433,
      "src": "entypo"
    },
    {
      "uid": "44199a54057e6e264fde61a49b034171",
      "css": "upload",
      "code": 59434,
      "src": "entypo"
    },
    {
      "uid": "390d6d13398cbf8c8c3c5493f7d34088",
      "css": "export",
      "code": 59451,
      "src": "entypo"
    },
    {
      "uid": "c77fd2fd065b5fe16d6f2b41e190b266",
      "css": "edit",
      "code": 59439,
      "src": "entypo"
    },
    {
      "uid": "16890362e811b4cb8de36282b071fe30",
      "css": "comment",
      "code": 59427,
      "src": "entypo"
    },
    {
      "uid": "2c5335c6e56b876139d7a58ab2f4b2fe",
      "css": "notification",
      "code": 59411,
      "src": "entypo"
    },
    {
      "uid": "97902f87200ce74d181044df02a0458d",
      "css": "warning",
      "code": 59410,
      "src": "entypo"
    },
    {
      "uid": "a42b598e4298f3319b25a2702a02e7ff",
      "css": "location",
      "code": 59437,
      "src": "entypo"
    },
    {
      "uid": "64f5a50cf7ac972a56a9a511acb5d28e",
      "css": "map",
      "code": 59446,
      "src": "entypo"
    },
    {
      "uid": "2626e3a1bbcd90e45849af3b58a1d594",
      "css": "trash",
      "code": 59412,
      "src": "entypo"
    },
    {
      "uid": "48b79f27e4798f23bafa07b55dbe5b73",
      "css": "book",
      "code": 59454,
      "src": "entypo"
    },
    {
      "uid": "bc64550dd022ce21604f97309b346cea",
      "css": "cog",
      "code": 59401,
      "src": "entypo"
    },
    {
      "uid": "6a7b9d4863bb7e6c79e9457a72d689b6",
      "css": "tools",
      "code": 59455,
      "src": "entypo"
    },
    {
      "uid": "2d76f2c8d13be40694ecadfea7fb83c3",
      "css": "logout",
      "code": 59456,
      "src": "entypo"
    },
    {
      "uid": "29e7f6072d5935d7818204d9b088508b",
      "css": "deny",
      "code": 59413,
      "src": "entypo"
    },
    {
      "uid": "8704cd847a47b64265b8bb110c8b4d62",
      "css": "down",
      "code": 59405,
      "src": "entypo"
    },
    {
      "uid": "c311c48d79488965b0fab7f9cd12b6b5",
      "css": "left",
      "code": 59404,
      "src": "entypo"
    },
    {
      "uid": "749e7d90a9182938180f1d2d8c33584e",
      "css": "right",
      "code": 59403,
      "src": "entypo"
    },
    {
      "uid": "9c7ff134960bb5a82404e4aeaab366d9",
      "css": "up",
      "code": 59402,
      "src": "entypo"
    },
    {
      "uid": "3bd18d47a12b8709e9f4fe9ead4f7518",
      "css": "refresh",
      "code": 59407,
      "src": "entypo"
    },
    {
      "uid": "f0eac0958921fe45b85d01b79d76e86b",
      "css": "switch",
      "code": 59428,
      "src": "entypo"
    },
    {
      "uid": "89eb512cb82a1c3fe83cb16134f9876c",
      "css": "revert",
      "code": 59424,
      "src": "entypo"
    },
    {
      "uid": "6a12c2b74456ea21cc984e11dec227a1",
      "css": "globe",
      "code": 59429,
      "src": "entypo"
    },
    {
      "uid": "fb5082fac1794b69a1381196219a836e",
      "css": "chart-pie",
      "code": 59447,
      "src": "entypo"
    },
    {
      "uid": "ddecf5ad7935e3fb1b70dac6ed00d06a",
      "css": "language",
      "code": 59423,
      "src": "entypo"
    },
    {
      "uid": "c5cd6ea1981cecdd85c42d9d209bc3b8",
      "css": "credit-card",
      "code": 59445,
      "src": "entypo"
    },
    {
      "uid": "8beac4a5fd5bed9f82ca7a96cc8ba218",
      "css": "key",
      "code": 59438,
      "src": "entypo"
    },
    {
      "uid": "3a6f0140c3a390bdb203f56d1bfdefcb",
      "css": "gauge",
      "code": 59422,
      "src": "entypo"
    },
    {
      "uid": "b4cc17a45ed7d179a2cc815e2da7a383",
      "css": "ok-circle",
      "code": 59414,
      "src": "iconic"
    },
    {
      "uid": "188e881b2e2f2b1eb350eb7697aabafd",
      "css": "cancel-circle",
      "code": 59406,
      "src": "iconic"
    },
    {
      "uid": "59ba4f90d2ca2a843f4f930b03270362",
      "css": "plus-circle",
      "code": 59397,
      "src": "iconic"
    },
    {
      "uid": "4062c0e99a3540f6c261bd08ef0fb63f",
      "css": "minus-circle",
      "code": 59395,
      "src": "iconic"
    }
  ]
}