{
    "assets_path": "assets/",
    "breadcrumb": {
        "separator": "<span class='sep'></span>",
        "attributes": {"id": "breadcrumb"},
        "classes": [],
        "active_classes": ["active"],
        "items": [
            {
                "url": "http://domain.com",
                "name": "Home", 
                "classes": ["class1", "class2"],
                "attributes": {
                    "placeholder": "My Placeholder",
                    "readonly": true, 
                    "data-sort": "true"
                }
            },
            {
                "url": "http://domain.com",
                "name": "Second item", 
                "classes": ["class1", "class2"],
                "attributes": {
                    "placeholder": "My Placeholder",
                    "readonly": true, 
                    "data-sort": "true"
                }
            },
            {
                "url": "http://domain.com",
                "name": "Breadcumb Name", 
                "classes": ["class1", "class2"],
                "attributes": {
                    "placeholder": "My Placeholder",
                    "readonly": true, 
                    "data-sort": "true"
                }
            }
        ]
    },
    "menu": {
        "classes": ["main-menu"],
        "items": [
            {
                "url": "http://domain.com",
                "name": "Menuitem Name 2", 
                "classes": ["class1", "class2"],
                "menu": {
                    "classes": [],
                    "items": [
                        {
                            "url": "http://domain.com",
                            "name": "Menuitem Name",
                            "classes": ["class1", "class2"],
                            "attributes": {
                                "placeholder": "My Placeholder",
                                "readonly": true, 
                                "data-sort": "true"
                            }
                        }
                    ]
                },
                "attributes": {
                    "placeholder": "My Placeholder",
                    "readonly": true, 
                    "data-sort": "true"
                }
            },
			{
                "url": "http://domain.com",
                "name": "Menuitem Name 2", 
                "classes": ["active", "class2"],
                "menu": {
                    "classes": [],
                    "items": [
                        {
                            "url": "http://domain.com",
                            "name": "Menuitem Name",
                            "classes": ["active", "class2"],
                            "attributes": {
                                "placeholder": "My Placeholder",
                                "readonly": true, 
                                "data-sort": "true"
                            }
                        },
                        {
                            "url": "http://domain.com",
                            "name": "Menuitem Name",
                            "classes": ["class1", "class2"],
                            "attributes": {
                                "placeholder": "My Placeholder",
                                "readonly": true, 
                                "data-sort": "true"
                            }
                        }
                    ]
                },
                "attributes": {
                    "placeholder": "My Placeholder",
                    "readonly": true, 
                    "data-sort": "true"
                }
            }
        ]
    },
    "top_menu": {
        "classes": ["top-menu"],
        "items": [
            {
                "url": "http://domain.com",
                "name": "<span class='icon-chart-pie'></span>Menuitem Name 2"
            },
            {
                "url": "http://domain.com",
                "name": "Menuitem Name 2"
            },
            {
                "url": "http://domain.com",
                "name": "Menuitem Name 2"
            }
        ]
    },
    "user_menu": {
        "classes": ["user-sub-menu"],
        "items": [
            {
                "url": "http://domain.com",
                "name": "<span class='icon-chart-pie'></span> Menuitem Name 2"
            },
            {
                "url": "http://domain.com",
                "name": "<span class='icon-user'></span> Menuitem Name 2"
            },
            {
                "url": "http://domain.com",
                "name": "<span class='icon-menu'></span> Menuitem Name 2"
            }
        ]
    },
    "form": {
        "action": "",
        "method": "post",
        "attributes": {"enctype": "multipart/form-data"},
        "classes": [],
        "active_classes": ["active"],
        "sections": [
            {
                "label": "Personal Information",
                "classes": ["class1", "class2"],
                "attributes": {
                    "placeholder": "My Placeholder",
                    "readonly": true, 
                    "data-sort": "true"
                },
                "items": [
                    {
                       "type": "text",
                       "label":"E-mail",
                       "name": "email",
                       "id": "email-1",
                       "classes": [],
                       "attributes": {}
                    }
                ]
            }
        ]
    },
     "form_login": {
        "action": "index.html",
        "method": "get",
        "attributes": {"enctype": "multipart/form-data"},
        "classes": [],
        "active_classes": ["active"],
        "sections": [
            {
                "label": "Login",
                "classes": [],
                "attributes": {},
                "items": [
                    {
                       "type": "text",
                       "label":"E-mail",
                       "name": "email",
                       "id": "email-1",
                       "classes": [],
                       "attributes": {}
                    },
                    {
                       "type": "password",
                       "label":"Password",
                       "name": "password",
                       "id": "password-1",
                       "classes": [],
                       "attributes": {}
                    },
                    {
                       "type": "submit",
                       "label":"Login"
                    }
                ]
            }
        ]
    }
}
